%YAML 1.1
%TAG !u! tag:unity3d.com,2011:
--- !u!114 &11400000
MonoBehaviour:
  m_ObjectHideFlags: 0
  m_CorrespondingSourceObject: {fileID: 0}
  m_PrefabInstance: {fileID: 0}
  m_PrefabAsset: {fileID: 0}
  m_GameObject: {fileID: 0}
  m_Enabled: 1
  m_EditorHideFlags: 0
  m_Script: {fileID: 11500000, guid: 1787c9cddbf1bd54a9d6a95555c50555, type: 3}
  m_Name: "\uB3C5 \uB370\uBBF8\uC9C0"
  m_EditorClassIdentifier: 
  IsHeal: 0
  IsTrueDamage: 0
  FixedAmount: 50
  EnhancePercentRate: 0
  RatioType: 0
  RatioPercent: 0
